// Vitest Snapshot v1, https://vitest.dev/guide/snapshot.html

exports[`NLoadingButton 自定义文本正确渲染 1`] = `
"<button class=\\"ant-btn n-button n-auto-load-button n-auto-load-button\\" type=\\"button\\">
  <transition-stub name=\\"ant-btn-loading-icon-motion\\" appear=\\"false\\" persisted=\\"false\\" css=\\"true\\">
    <!---->
  </transition-stub><span>点击我！</span>
</button>"
`;

exports[`NLoadingButton 默认属性下正确渲染 1`] = `
"<button class=\\"ant-btn n-button n-auto-load-button n-auto-load-button\\" type=\\"button\\">
  <transition-stub name=\\"ant-btn-loading-icon-motion\\" appear=\\"false\\" persisted=\\"false\\" css=\\"true\\">
    <!---->
  </transition-stub>
</button>"
`;
